{
    "KPlugin": {
        "Authors": [
            {
                "Email": "mklapetek@kde.org",
                "Name": "Martin Klapetek",
                "Name[ar]": "Martin Klapetek",
                "Name[az]": "Martin Klapetek",
                "Name[ca]": "Martin Klapetek",
                "Name[cs]": "Martin Klapetek",
                "Name[de]": "Martin Klapetek",
                "Name[en_GB]": "Martin Klapetek",
                "Name[es]": "Martin Klapetek",
                "Name[eu]": "Martin Klapetek",
                "Name[fi]": "Martin Klapetek",
                "Name[fr]": "Martin Klapetek",
                "Name[hi]": "मार्टिन क्लैपेटेक",
                "Name[hu]": "Martin Klapetek",
                "Name[ia]": "Martin Klapetek",
                "Name[it]": "Martin Klapetek",
                "Name[ko]": "Martin Klapetek",
                "Name[nl]": "Martin Klapetek",
                "Name[nn]": "Martin Klapetek",
                "Name[pl]": "Martin Klapetek",
                "Name[pt]": "Martin Klapetek",
                "Name[pt_BR]": "Martin Klapetek",
                "Name[ru]": "Martin Klapetek",
                "Name[sk]": "Martin Klapetek",
                "Name[sl]": "Martin Klapetek",
                "Name[sv]": "Martin Klapetek",
                "Name[uk]": "Martin Klapetek",
                "Name[vi]": "Martin Klapetek",
                "Name[x-test]": "xxMartin Klapetekxx",
                "Name[zh_CN]": "Martin Klapetek"
            }
        ],
        "Description": "Calendar plugin for displaying public holidays",
        "Description[ar]": "ملحق للتقويم يعرض العطل العامة",
        "Description[az]": "Ümumi bayramları göstərmək üçün təqvim əlavəsi",
        "Description[ca]": "Connector de calendari per a mostrar els festius oficials",
        "Description[cs]": "Modul kalendáře pro zobrazování státních svátků",
        "Description[en_GB]": "Calendar plugin for displaying public holidays",
        "Description[es]": "Complemento del calendario para mostrar días festivos nacionales",
        "Description[eu]": "Jaiegunak erakusteko egutegiko plugina",
        "Description[fi]": "Julkiset vapaapäivät näyttävä kalenteriliitännäinen",
        "Description[fr]": "Module externe d'agenda pour l'affichage des jours fériés",
        "Description[hi]": "सार्वजनिक छुट्टियों को प्रदर्शित करने के लिए कैलेन्डर प्लगइन",
        "Description[hu]": "Bővítmény nemzeti ünnepek megjelenítéséhez",
        "Description[ia]": "Plugin de calendario per mostrar dies feriate public",
        "Description[it]": "Estensione calendario per visualizzare le festività pubbliche",
        "Description[ko]": "공휴일을 표시하는 달력 플러그인",
        "Description[nl]": "Plug-in voor agenda voor tonen van publieke vrije dagen",
        "Description[nn]": "Kalendertillegg for vising av offentlege fridagar",
        "Description[pl]": "Wtyczka kalendarza do wyświetlania publicznych świąt",
        "Description[pt]": "'Plugin' do calendário para mostrar os feriados públicos",
        "Description[pt_BR]": "Plugin de calendário para mostrar feriados públicos",
        "Description[ru]": "Модуль календаря для отображения национальных праздничных дней",
        "Description[sk]": "Doplnok kalendára na zobrazenie štátnych sviatkov",
        "Description[sl]": "Koledarjev vtičnik za prikaz praznikov",
        "Description[sv]": "Kalenderinsticksprogram för att visa allmänna helgdagar",
        "Description[ta]": "நாள்காட்டிகளுக்கான பொது விடுமுறைகளை காட்டும் செருகுநிரல்",
        "Description[uk]": "Додаток календаря для показу офіційних свят",
        "Description[vi]": "Phần cài cắm lịch để hiển thị các ngày lễ quốc gia",
        "Description[x-test]": "xxCalendar plugin for displaying public holidaysxx",
        "Description[zh_CN]": "显示公共节假日的日历插件",
        "Icon": "view-calendar-holiday",
        "Name": "Holidays",
        "Name[ar]": "العُطل",
        "Name[az]": "Bayramlar",
        "Name[ca]": "Dies festius",
        "Name[cs]": "Svátky",
        "Name[de]": "Urlaub",
        "Name[en_GB]": "Holidays",
        "Name[es]": "Días festivos",
        "Name[eu]": "Jaiegunak",
        "Name[fi]": "Vapaapäivät",
        "Name[fr]": "Vacances",
        "Name[hi]": "छुट्टियाँ",
        "Name[hu]": "Ünnepek",
        "Name[ia]": "Dies feriate",
        "Name[it]": "Festività",
        "Name[ko]": "공휴일",
        "Name[nl]": "Vrije dagen",
        "Name[nn]": "Fridagar",
        "Name[pl]": "Święta",
        "Name[pt]": "Feriados",
        "Name[pt_BR]": "Feriados",
        "Name[ru]": "Праздничные дни",
        "Name[sk]": "Sviatky",
        "Name[sl]": "Prazniki",
        "Name[sv]": "Helgdagar",
        "Name[ta]": "விடுமுறைகள்",
        "Name[uk]": "Свята",
        "Name[vi]": "Ngày lễ",
        "Name[x-test]": "xxHolidaysxx",
        "Name[zh_CN]": "节假日"
    },
    "X-KDE-PlasmaCalendar-ConfigUi": "holidays/HolidaysConfig.qml"
}
